{"total":4,"per_page":3,"current_page":1,"last_page":2,"next_page_url":"http:\/\/localhost\/laravel-api\/public\/api\/v1\/categorias?page=2","prev_page_url":null,"from":1,"to":3,"data":[{"codigo_categoria":9,"nome":"vitaz2","created_at":"2017-03-02 03:20:46","updated_at":"2017-03-11 07:37:37"},{"codigo_categoria":10,"nome":"liberos","created_at":"2017-03-02 03:20:46","updated_at":"2017-03-11 07:39:57"},{"codigo_categoria":11,"nome":"sub 30","created_at":"2017-03-21 04:35:48","updated_at":"2017-03-21 04:35:48"}]}